Text Analysis Workshop
…
We can take our tidy words data frame and inner join the nrc lexicon onto our data. Now our data-set has an additional feature categorizing each word by a particular emotion

nrc_text <- tidy_words |>
  inner_join(get_sentiments("nrc"), by = "word")

Warning in inner_join(tidy_words, get_sentiments("nrc"), by = "word"): Detected an unexpected many-to-many relationship between `x` and `y`.
ℹ Row 16 of `x` matches multiple rows in `y`.
ℹ Row 4308 of `y` matches multiple rows in `x`.
ℹ If a many-to-many relationship is expected, set `relationship =
  "many-to-many"` to silence this warning.

nrc_text

# A tibble: 185,398 × 5
   record_id date_and_time notification_type          word      sentiment
       <dbl> <chr>         <chr>                      <chr>     <chr>    
 1       209 5/11/09 10:00 zINAC * Aerial (Fly-Over)  military  fear     
 2       210 5/15/09 8:00  zINAC * Drills / Exercises county    trust    
 3       210 5/15/09 8:00  zINAC * Drills / Exercises emergency fear     
 4       210 5/15/09 8:00  zINAC * Drills / Exercises emergency negative 
 5       210 5/15/09 8:00  zINAC * Drills / Exercises emergency sadness  
 6       210 5/15/09 8:00  zINAC * Drills / Exercises emergency surprise 
 7       211 5/16/09 17:00 zINAC * Drills / Exercises trade     trust    
 8       211 5/16/09 17:00 zINAC * Drills / Exercises center    positive 
 9       211 5/16/09 17:00 zINAC * Drills / Exercises center    trust    
10       211 5/16/09 17:00 zINAC * Drills / Exercises emergency fear     
# ℹ 185,388 more rows
…
To do this we can process our data to count the number of emotion based words per approach

nrc_counts <- nrc_text |>
  group_by(record_id) |>
  count(sentiment) |>
  ungroup() |>
  pivot_wider(names_from = sentiment, 
              values_from = n,
              values_fill = 0) |>
  left_join(data, by = "record_id")

nrc_counts

# A tibble: 23,142 × 16
   record_id anticipation  fear negative sadness surprise trust positive   joy
       <dbl>        <int> <int>    <int>   <int>    <int> <int>    <int> <int>
 1         1            1     1        1       1        1     1        0     0
 2         2            1     0        0       0        0     0        0     0
 3         3            1     0        0       0        0     0        0     0
 4         4            2     2        2       2        2     0        1     0
 5         5            1     0        0       0        0     0        0     0
 6         6            1     1        1       0        0     1        1     0
 7         7            1     1        1       1        2     2        1     1
 8         9            0     0        0       0        1     0        1     0
 9        10            0     1        1       1        0     0        1     0
10        11            0     3        3       2        1     0        1     0
# ℹ 23,132 more rows
# ℹ 7 more variables: disgust <int>, anger <int>, date_and_time <chr>,
#   notification_type <chr>, notification_title <chr>, email_body <chr>,
#   cleaned_text <chr>
…
Taking the exponent our coefficient we see this is pretty sizable difference!

exp(anticipation_model$coefficients[2])

notification_typeTransportation 
                       1.479644 

Let’s take a dive into the type of anticipation words that exist across these two categories

nrc_text |>
  filter(sentiment == "anticipation",
         notification_type %in% c("Transportation", "Local Mass Transit")) |>
  count(word, sort = TRUE)

# A tibble: 91 × 2
   word              n
   <chr>         <int>
 1 expect         7054
 2 time           6680
 3 closure        1610
 4 approaching     408
 5 rail            262
 6 tomorrow        172
 7 investigation   166
 8 track            95
 9 church           67
10 parade           55
# ℹ 81 more rows

We’re not limited to a frequency count. As we saw when we were exploring other sentiment lexicons we can leverage dictionaries that quantify words by polarity. This allows us to take the sum or average sentiment score across a particular text.

afinn_text <- tidy_words |>
  inner_join(get_sentiments("afinn"), by = "word") |>
  group_by(record_id) |>
  summarise(avg_val = mean(value, na.rm = TRUE)) |>
  ungroup() |>
  left_join(data, by = "record_id")

afinn_text

# A tibble: 16,809 × 7
   record_id avg_val date_and_time notification_type          notification_title
       <dbl>   <dbl> <chr>         <chr>                      <chr>             
 1         1   -2    5/22/09 15:23 Utility                    Blank             
 2         2    1    5/22/09 17:56 Utility                    [blank]           
 3         4   -2    5/30/09 17:00 zINAC * Drills / Exercises [blank]           
 4         6   -2    6/2/09 16:30  Public Health              [blank]           
 5         7   -2    6/3/09 18:45  Emergency Activity         [blank]           
 6        10   -2    6/21/09 0:00  <NA>                       [blank]           
 7        11   -1.67 6/21/09 15:20 <NA>                       [blank]           
 8        12   -2    6/25/09 0:00  Utility                    [blank]           
 9        13    1.5  6/25/09 0:00  Utility                    [blank]           
10        14   -2    7/1/09 0:00   Local Mass Transit         [blank]           
# ℹ 16,799 more rows
# ℹ 2 more variables: email_body <chr>, cleaned_text <chr>
…
`summarise()` has grouped output by 'notification_type'. You can override using
the `.groups` argument.

afinn_by_hour

# A tibble: 48 × 6
# Groups:   notification_type [2]
   notification_type     hr avg_val sd_val n_count    sem
   <chr>              <int>   <dbl>  <dbl>   <int>  <dbl>
 1 Local Mass Transit     0  -0.532  1.37      190 0.0992
 2 Local Mass Transit     1  -0.45   1.52       60 0.197 
 3 Local Mass Transit     2  -0.889  1.06       54 0.144 
 4 Local Mass Transit     3  -0.737  1.08       38 0.176 
 5 Local Mass Transit     4  -0.881  0.790      59 0.103 
 6 Local Mass Transit     5  -0.792  1.29      125 0.115 
 7 Local Mass Transit     6  -0.602  1.48      103 0.146 
 8 Local Mass Transit     7  -0.626  1.23      147 0.101 
 9 Local Mass Transit     8  -0.674  1.27      138 0.108 
10 Local Mass Transit     9  -0.714  1.32      126 0.118 
# ℹ 38 more rows
…
The following object is masked from 'package:base':

    union

word_cors <- tidy_words |>
  filter(notification_type == "Public Health") |>
  add_count(word) |>
  filter(n > 200) |>
  pairwise_cor(word, record_id, sort = TRUE) |> 
  filter(correlation >= .30 & correlation <= .40)

word_cors

# A tibble: 88 × 3
   item1   item2   correlation
   <chr>   <chr>         <dbl>
 1 9       8             0.397
 2 8       9             0.397
 3 9       virus         0.395
 4 virus   9             0.395
 5 weather 30            0.392
 6 30      weather       0.392
 7 creek   00            0.390
 8 00      creek         0.390
 9 nile    00            0.387
10 00      nile          0.387
# ℹ 78 more rows
…
